@startuml
participant PrincipalZoo as p
participant Zoo as z
participant Cocodril as c

[o->p: mira()
activate p
p->z: mostraAnimal()
activate z
p<--z: cocodril
deactivate z
p->c: accio(zoo)
activate c
c->c: alimenta(zoo)
activate c
c->z: mostraAnimal()
activate z
c<--z: vaca
deactivate z
c->z: suprimeixAnimal(vaca)
activate z
c<--z
deactivate z
p<--c: "Un cocodril es menja una vaca!"
deactivate c
[<--p
deactivate p

@enduml
